{
  "name": "gmap-demo-e2e",
  "$schema": "../../node_modules/nx/schemas/project-schema.json",
  "projectType": "application",
  "sourceRoot": "apps/gmap-demo-e2e/src",
  "tags": [],
  "implicitDependencies": ["gmap-demo"],
  "// targets": "to see all targets run: nx show project gmap-demo-e2e --web",
  "targets": {}
}
