{
  "name": "table-demo",
  "$schema": "../../node_modules/nx/schemas/project-schema.json",
  "projectType": "application",
  "prefix": "matx",
  "sourceRoot": "apps/table-demo/src",
  "tags": [],
  "targets": {
    "build": {
      "executor": "@angular-devkit/build-angular:browser",
      "outputs": [
        "{options.outputPath}"
      ],
      "options": {
        "outputPath": "public/table",
        "index": "apps/table-demo/src/index.html",
        "main": "apps/table-demo/src/main.ts",
        "polyfills": [
          "zone.js"
        ],
        "tsConfig": "apps/table-demo/tsconfig.app.json",
        "inlineStyleLanguage": "scss",
        "assets": [
          {
            "glob": "**/*",
            "input": "apps/table-demo/public"
          }
        ],
        "styles": [
          "apps/table-demo/src/styles.scss"
        ],
        "scripts": []
      },
      "configurations": {
        "production": {
          "baseHref": "/matx/table/",
          "budgets": [
            {
              "type": "initial",
              "maximumWarning": "500kb",
              "maximumError": "1mb"
            },
            {
              "type": "anyComponentStyle",
              "maximumWarning": "4kb",
              "maximumError": "8kb"
            }
          ],
          "outputHashing": "all"
        },
        "development": {
          "buildOptimizer": false,
          "optimization": false,
          "vendorChunk": true,
          "extractLicenses": false,
          "sourceMap": true,
          "namedChunks": true
        }
      },
      "defaultConfiguration": "production"
    },
    "serve": {
      "executor": "@angular-devkit/build-angular:dev-server",
      "configurations": {
        "production": {
          "buildTarget": "table-demo:build:production"
        },
        "development": {
          "buildTarget": "table-demo:build:development"
        }
      },
      "defaultConfiguration": "development"
    },
    "extract-i18n": {
      "executor": "@angular-devkit/build-angular:extract-i18n",
      "options": {
        "buildTarget": "table-demo:build"
      }
    },
    "lint": {
      "executor": "@nx/eslint:lint"
    },
    "test": {
      "executor": "@nx/jest:jest",
      "outputs": [
        "{workspaceRoot}/coverage/{projectRoot}"
      ],
      "options": {
        "jestConfig": "apps/table-demo/jest.config.ts"
      }
    },
    "serve-static": {
      "executor": "@nx/web:file-server",
      "options": {
        "buildTarget": "table-demo:build",
        "port": 4200,
        "spa": true
      }
    }
  }
}
